<svg width="50" height="50" viewBox="0 0 50 50" fill="none" xmlns="http://www.w3.org/2000/svg">
<rect opacity="0.7" width="50" height="50" rx="4" fill="white"/>
<path d="M31 10L16 25L31 40" stroke="#576B75" stroke-width="2"/>
</svg>
