<svg width="254" height="152" viewBox="0 0 254 152" fill="none" xmlns="http://www.w3.org/2000/svg">
<path d="M61.0348 19.08V21H46.1523V0H60.5838V1.92H48.3772V9.39H59.261V11.28H48.3772V19.08H61.0348Z" fill="white"/>
<path d="M39.2837 0V21H37.0889V11.31H23.9202V21H21.6953V0H23.9202V9.36H37.0889V0H39.2837Z" fill="white"/>
<path d="M8.51919 1.92H1.12305V0H18.1402V1.92H10.744V21H8.51919V1.92Z" fill="white"/>
<path d="M254.001 59.8V65H232.273V37H253.48V42.2H238.728V48.28H251.756V53.32H238.728V59.8H254.001Z" fill="white"/>
<path d="M216.303 65.4795C213.443 65.4795 210.851 64.8662 208.526 63.6395C206.227 62.3862 204.41 60.6662 203.074 58.4795C201.764 56.2662 201.109 53.7729 201.109 50.9995C201.109 48.2262 201.764 45.7462 203.074 43.5595C204.41 41.3462 206.227 39.6262 208.526 38.3995C210.851 37.1462 213.456 36.5195 216.343 36.5195C218.775 36.5195 220.966 36.9462 222.917 37.7995C224.895 38.6529 226.552 39.8795 227.888 41.4795L223.719 45.3195C221.821 43.1329 219.469 42.0395 216.663 42.0395C214.926 42.0395 213.376 42.4262 212.013 43.1995C210.65 43.9462 209.581 44.9995 208.806 46.3595C208.058 47.7195 207.684 49.2662 207.684 50.9995C207.684 52.7329 208.058 54.2795 208.806 55.6395C209.581 56.9995 210.65 58.0662 212.013 58.8395C213.376 59.5862 214.926 59.9595 216.663 59.9595C219.469 59.9595 221.821 58.8529 223.719 56.6395L227.888 60.4795C226.552 62.1062 224.895 63.3462 222.917 64.1995C220.939 65.0529 218.735 65.4795 216.303 65.4795Z" fill="white"/>
<path d="M191.053 59H178.025L175.539 65H168.885L181.392 37H187.806L200.353 65H193.539L191.053 59ZM189.009 54.08L184.559 43.36L180.109 54.08H189.009Z" fill="white"/>
<path d="M148.145 37H154.639V59.72H168.709V65H148.145V37Z" fill="white"/>
<path d="M131.322 37C133.808 37 135.959 37.4133 137.776 38.24C139.62 39.0667 141.037 40.24 142.026 41.76C143.014 43.28 143.509 45.08 143.509 47.16C143.509 49.2133 143.014 51.0133 142.026 52.56C141.037 54.08 139.62 55.2533 137.776 56.08C135.959 56.88 133.808 57.28 131.322 57.28H125.67V65H119.176V37H131.322ZM130.962 52C132.912 52 134.396 51.5867 135.411 50.76C136.427 49.9067 136.935 48.7067 136.935 47.16C136.935 45.5867 136.427 44.3867 135.411 43.56C134.396 42.7067 132.912 42.28 130.962 42.28H125.67V52H130.962Z" fill="white"/>
<path d="M88.8546 42.28H79.875V37H104.328V42.28H95.3488V65H88.8546V42.28Z" fill="white"/>
<path d="M67.091 65.4795C64.8728 65.4795 62.7214 65.1862 60.6369 64.5995C58.579 63.9862 56.9221 63.1995 55.666 62.2395L57.8708 57.3595C59.0735 58.2395 60.5032 58.9462 62.1602 59.4795C63.8171 60.0129 65.4741 60.2795 67.131 60.2795C68.9751 60.2795 70.338 60.0129 71.22 59.4795C72.1019 58.9195 72.5429 58.1862 72.5429 57.2795C72.5429 56.6129 72.2756 56.0662 71.7411 55.6395C71.2333 55.1862 70.5652 54.8262 69.7367 54.5595C68.935 54.2929 67.8392 53.9995 66.4495 53.6795C64.3116 53.1729 62.5611 52.6662 61.1981 52.1595C59.8351 51.6529 58.6592 50.8395 57.6704 49.7195C56.7083 48.5995 56.2272 47.1062 56.2272 45.2395C56.2272 43.6129 56.6682 42.1462 57.5501 40.8395C58.4321 39.5062 59.7549 38.4529 61.5188 37.6795C63.3094 36.9062 65.4875 36.5195 68.0531 36.5195C69.8436 36.5195 71.5941 36.7329 73.3045 37.1595C75.0149 37.5862 76.5115 38.1995 77.7943 38.9995L75.7899 43.9195C73.1976 42.4529 70.6053 41.7195 68.013 41.7195C66.1957 41.7195 64.8461 42.0129 63.9641 42.5995C63.1089 43.1862 62.6813 43.9595 62.6813 44.9195C62.6813 45.8795 63.1757 46.5995 64.1646 47.0795C65.1801 47.5329 66.7168 47.9862 68.7746 48.4395C70.9126 48.9462 72.6631 49.4529 74.0261 49.9595C75.3891 50.4662 76.5516 51.2662 77.5137 52.3595C78.5025 53.4529 78.9969 54.9329 78.9969 56.7995C78.9969 58.3995 78.5426 59.8662 77.634 61.1995C76.752 62.5062 75.4158 63.5462 73.6252 64.3195C71.8346 65.0929 69.6566 65.4795 67.091 65.4795Z" fill="white"/>
<path d="M52.702 59.8V65H30.9746V37H52.1809V42.2H37.4287V48.28H50.4571V53.32H37.4287V59.8H52.702Z" fill="white"/>
<path d="M20.9272 50.44C22.5307 50.9467 23.7868 51.8 24.6955 53C25.6041 54.1733 26.0584 55.6267 26.0584 57.36C26.0584 59.8133 25.0963 61.7067 23.1721 63.04C21.2747 64.3467 18.4953 65 14.8339 65H0.322266V37H14.0322C17.453 37 20.072 37.6533 21.8893 38.96C23.7334 40.2667 24.6554 42.04 24.6554 44.28C24.6554 45.64 24.3213 46.8533 23.6532 47.92C23.0118 48.9867 22.1031 49.8267 20.9272 50.44ZM6.77635 41.88V48.48H13.2304C14.8339 48.48 16.0499 48.2 16.8784 47.64C17.7069 47.08 18.1211 46.2533 18.1211 45.16C18.1211 44.0667 17.7069 43.2533 16.8784 42.72C16.0499 42.16 14.8339 41.88 13.2304 41.88H6.77635ZM14.3529 60.12C16.0633 60.12 17.3461 59.84 18.2013 59.28C19.0832 58.72 19.5242 57.8533 19.5242 56.68C19.5242 54.36 17.8004 53.2 14.3529 53.2H6.77635V60.12H14.3529Z" fill="white"/>
<path d="M159.884 79H163.252L162.65 98.6H160.446L159.884 79ZM161.568 107.2C160.98 107.2 160.472 107 160.045 106.6C159.644 106.173 159.443 105.68 159.443 105.12C159.443 104.533 159.644 104.053 160.045 103.68C160.446 103.28 160.953 103.08 161.568 103.08C162.156 103.08 162.65 103.28 163.051 103.68C163.452 104.053 163.653 104.533 163.653 105.12C163.653 105.68 163.452 106.173 163.051 106.6C162.65 107 162.156 107.2 161.568 107.2Z" fill="white"/>
<path d="M153.955 104.44V107H134.111V79H153.353V81.56H137.078V91.52H151.589V94.04H137.078V104.44H153.955Z" fill="white"/>
<path d="M130.038 79L117.611 107H114.685L102.258 79H105.465L116.208 103.32L127.032 79H130.038Z" fill="white"/>
<path d="M94.9238 79H97.8903V107H94.9238V79Z" fill="white"/>
<path d="M71.3184 79H74.2848V104.44H89.9991V107H71.3184V79Z" fill="white"/>
<path d="M39.4631 107.24C36.6837 107.24 34.1582 106.626 31.8866 105.4C29.6417 104.146 27.8779 102.44 26.5951 100.28C25.339 98.1198 24.7109 95.6931 24.7109 92.9998C24.7109 90.3064 25.339 87.8798 26.5951 85.7198C27.8779 83.5598 29.6417 81.8664 31.8866 80.6398C34.1582 79.3864 36.6837 78.7598 39.4631 78.7598C42.2425 78.7598 44.7413 79.3731 46.9595 80.5998C49.2044 81.8264 50.9682 83.5331 52.251 85.7198C53.5338 87.8798 54.1752 90.3064 54.1752 92.9998C54.1752 95.6931 53.5338 98.1331 52.251 100.32C50.9682 102.48 49.2044 104.173 46.9595 105.4C44.7413 106.626 42.2425 107.24 39.4631 107.24ZM39.4631 104.6C41.6813 104.6 43.6857 104.106 45.4763 103.12C47.2668 102.106 48.6699 100.72 49.6854 98.9598C50.701 97.1731 51.2088 95.1864 51.2088 92.9998C51.2088 90.8131 50.701 88.8398 49.6854 87.0798C48.6699 85.2931 47.2668 83.9064 45.4763 82.9198C43.6857 81.9064 41.6813 81.3998 39.4631 81.3998C37.245 81.3998 35.2272 81.9064 33.4099 82.9198C31.6194 83.9064 30.2029 85.2931 29.1606 87.0798C28.1451 88.8398 27.6373 90.8131 27.6373 92.9998C27.6373 95.1864 28.1451 97.1731 29.1606 98.9598C30.2029 100.72 31.6194 102.106 33.4099 103.12C35.2272 104.106 37.245 104.6 39.4631 104.6Z" fill="white"/>
<path d="M10.0217 81.56H0.160156V79H22.8497V81.56H12.9882V107H10.0217V81.56Z" fill="white"/>
<path opacity="0.9" d="M0 121C0 119.895 0.897389 119 2.00437 119H187.409C188.516 119 189.413 119.895 189.413 121V150C189.413 151.105 188.516 152 187.409 152H2.00438C0.897393 152 0 151.105 0 150V121Z" fill="white"/>
<path d="M79.997 139.624V142H70.4542V140.11L75.3248 135.52C75.842 135.028 76.1907 134.608 76.3711 134.26C76.5515 133.9 76.6417 133.546 76.6417 133.198C76.6417 132.694 76.4673 132.31 76.1186 132.046C75.7818 131.77 75.2827 131.632 74.6213 131.632C74.0681 131.632 73.569 131.74 73.124 131.956C72.6791 132.16 72.3063 132.472 72.0056 132.892L69.877 131.524C70.37 130.792 71.0495 130.222 71.9154 129.814C72.7813 129.394 73.7735 129.184 74.8919 129.184C75.8299 129.184 76.6477 129.34 77.3453 129.652C78.0548 129.952 78.602 130.384 78.9868 130.948C79.3837 131.5 79.5821 132.154 79.5821 132.91C79.5821 133.594 79.4378 134.236 79.1492 134.836C78.8606 135.436 78.3013 136.12 77.4715 136.888L74.5672 139.624H79.997Z" fill="#2079D2"/>
<path d="M60.7512 139.299H54.8884L53.7699 141.999H50.7754L56.4037 129.399H59.29L64.9363 141.999H61.8696L60.7512 139.299ZM59.8312 137.085L57.8288 132.261L55.8264 137.085H59.8312Z" fill="#2079D2"/>
<path d="M50.5616 139.623V141.999H39.5215V140.109L46.4486 131.775H39.6658V129.399H50.291V131.289L43.3819 139.623H50.5616Z" fill="#2079D2"/>
<path d="M34.8371 139.299H28.9743L27.8559 141.999H24.8613L30.4896 129.399H33.3759L39.0222 141.999H35.9555L34.8371 139.299ZM33.9171 137.085L31.9147 132.261L29.9124 137.085H33.9171Z" fill="#2079D2"/>
<path d="M18.4517 131.739V135.069H24.2964V137.409H18.4517V141.999H15.5293V129.399H25.0721V131.739H18.4517Z" fill="#2079D2"/>
</svg>
