<svg width="132" height="15" viewBox="0 0 132 15" fill="none" xmlns="http://www.w3.org/2000/svg">
<path d="M8.49871 10.695V12H0.878711V1.5H8.28871V2.805H2.37871V6.03H7.64371V7.305H2.37871V10.695H8.49871ZM15.6118 12L13.3168 8.955L10.9918 12H9.38676L12.5218 7.935L9.53676 4.05H11.1418L13.3318 6.915L15.5068 4.05H17.0818L14.0818 7.935L17.2468 12H15.6118ZM23.0331 3.975C23.8031 3.975 24.4931 4.145 25.1031 4.485C25.7131 4.825 26.1881 5.3 26.5281 5.91C26.8781 6.52 27.0531 7.225 27.0531 8.025C27.0531 8.825 26.8781 9.535 26.5281 10.155C26.1881 10.765 25.7131 11.24 25.1031 11.58C24.4931 11.92 23.8031 12.09 23.0331 12.09C22.4631 12.09 21.9381 11.98 21.4581 11.76C20.9881 11.54 20.5881 11.22 20.2581 10.8V14.91H18.8181V4.05H20.1981V5.31C20.5181 4.87 20.9231 4.54 21.4131 4.32C21.9031 4.09 22.4431 3.975 23.0331 3.975ZM22.9131 10.83C23.4231 10.83 23.8781 10.715 24.2781 10.485C24.6881 10.245 25.0081 9.915 25.2381 9.495C25.4781 9.065 25.5981 8.575 25.5981 8.025C25.5981 7.475 25.4781 6.99 25.2381 6.57C25.0081 6.14 24.6881 5.81 24.2781 5.58C23.8781 5.35 23.4231 5.235 22.9131 5.235C22.4131 5.235 21.9581 5.355 21.5481 5.595C21.1481 5.825 20.8281 6.15 20.5881 6.57C20.3581 6.99 20.2431 7.475 20.2431 8.025C20.2431 8.575 20.3581 9.065 20.5881 9.495C20.8181 9.915 21.1381 10.245 21.5481 10.485C21.9581 10.715 22.4131 10.83 22.9131 10.83ZM29.0427 0.869999H30.4827V12H29.0427V0.869999ZM36.6372 12.09C35.8472 12.09 35.1372 11.915 34.5072 11.565C33.8772 11.215 33.3822 10.735 33.0222 10.125C32.6722 9.505 32.4972 8.805 32.4972 8.025C32.4972 7.245 32.6722 6.55 33.0222 5.94C33.3822 5.32 33.8772 4.84 34.5072 4.5C35.1372 4.15 35.8472 3.975 36.6372 3.975C37.4272 3.975 38.1322 4.15 38.7522 4.5C39.3822 4.84 39.8722 5.32 40.2222 5.94C40.5822 6.55 40.7622 7.245 40.7622 8.025C40.7622 8.805 40.5822 9.505 40.2222 10.125C39.8722 10.735 39.3822 11.215 38.7522 11.565C38.1322 11.915 37.4272 12.09 36.6372 12.09ZM36.6372 10.83C37.1472 10.83 37.6022 10.715 38.0022 10.485C38.4122 10.245 38.7322 9.915 38.9622 9.495C39.1922 9.065 39.3072 8.575 39.3072 8.025C39.3072 7.475 39.1922 6.99 38.9622 6.57C38.7322 6.14 38.4122 5.81 38.0022 5.58C37.6022 5.35 37.1472 5.235 36.6372 5.235C36.1272 5.235 35.6672 5.35 35.2572 5.58C34.8572 5.81 34.5372 6.14 34.2972 6.57C34.0672 6.99 33.9522 7.475 33.9522 8.025C33.9522 8.575 34.0672 9.065 34.2972 9.495C34.5372 9.915 34.8572 10.245 35.2572 10.485C35.6672 10.715 36.1272 10.83 36.6372 10.83ZM44.1337 5.385C44.3837 4.925 44.7537 4.575 45.2437 4.335C45.7337 4.095 46.3287 3.975 47.0287 3.975V5.37C46.9487 5.36 46.8387 5.355 46.6987 5.355C45.9187 5.355 45.3037 5.59 44.8537 6.06C44.4137 6.52 44.1937 7.18 44.1937 8.04V12H42.7537V4.05H44.1337V5.385ZM55.9152 8.07C55.9152 8.18 55.9052 8.325 55.8852 8.505H49.4352C49.5252 9.205 49.8302 9.77 50.3502 10.2C50.8802 10.62 51.5352 10.83 52.3152 10.83C53.2652 10.83 54.0302 10.51 54.6102 9.87L55.4052 10.8C55.0452 11.22 54.5952 11.54 54.0552 11.76C53.5252 11.98 52.9302 12.09 52.2702 12.09C51.4302 12.09 50.6852 11.92 50.0352 11.58C49.3852 11.23 48.8802 10.745 48.5202 10.125C48.1702 9.505 47.9952 8.805 47.9952 8.025C47.9952 7.255 48.1652 6.56 48.5052 5.94C48.8552 5.32 49.3302 4.84 49.9302 4.5C50.5402 4.15 51.2252 3.975 51.9852 3.975C52.7452 3.975 53.4202 4.15 54.0102 4.5C54.6102 4.84 55.0752 5.32 55.4052 5.94C55.7452 6.56 55.9152 7.27 55.9152 8.07ZM51.9852 5.19C51.2952 5.19 50.7152 5.4 50.2452 5.82C49.7852 6.24 49.5152 6.79 49.4352 7.47H54.5352C54.4552 6.8 54.1802 6.255 53.7102 5.835C53.2502 5.405 52.6752 5.19 51.9852 5.19ZM65.3181 5.91C66.3481 6.01 67.1331 6.33 67.6731 6.87C68.2131 7.4 68.4831 8.08 68.4831 8.91C68.4831 9.51 68.3331 10.055 68.0331 10.545C67.7331 11.025 67.2831 11.41 66.6831 11.7C66.0931 11.98 65.3681 12.12 64.5081 12.12C63.7581 12.12 63.0381 12.01 62.3481 11.79C61.6581 11.56 61.0931 11.245 60.6531 10.845L61.3431 9.66C61.7031 10 62.1631 10.275 62.7231 10.485C63.2831 10.685 63.8781 10.785 64.5081 10.785C65.2881 10.785 65.8931 10.62 66.3231 10.29C66.7631 9.96 66.9831 9.505 66.9831 8.925C66.9831 8.345 66.7681 7.895 66.3381 7.575C65.9081 7.255 65.2581 7.095 64.3881 7.095H63.5481V6.045L66.1881 2.805H61.1331V1.5H68.0631V2.52L65.3181 5.91ZM70.7371 1.5H75.1621C76.2721 1.5 77.2571 1.72 78.1171 2.16C78.9771 2.6 79.6421 3.22 80.1121 4.02C80.5921 4.81 80.8321 5.72 80.8321 6.75C80.8321 7.78 80.5921 8.695 80.1121 9.495C79.6421 10.285 78.9771 10.9 78.1171 11.34C77.2571 11.78 76.2721 12 75.1621 12H70.7371V1.5ZM75.0721 10.695C75.9221 10.695 76.6671 10.53 77.3071 10.2C77.9571 9.87 78.4571 9.41 78.8071 8.82C79.1571 8.22 79.3321 7.53 79.3321 6.75C79.3321 5.97 79.1571 5.285 78.8071 4.695C78.4571 4.095 77.9571 3.63 77.3071 3.3C76.6671 2.97 75.9221 2.805 75.0721 2.805H72.2371V10.695H75.0721ZM90.218 12.12C89.428 12.12 88.663 12 87.923 11.76C87.193 11.51 86.618 11.19 86.198 10.8L86.753 9.63C87.153 9.99 87.663 10.285 88.283 10.515C88.913 10.735 89.558 10.845 90.218 10.845C91.088 10.845 91.738 10.7 92.168 10.41C92.598 10.11 92.813 9.715 92.813 9.225C92.813 8.865 92.693 8.575 92.453 8.355C92.223 8.125 91.933 7.95 91.583 7.83C91.243 7.71 90.758 7.575 90.128 7.425C89.338 7.235 88.698 7.045 88.208 6.855C87.728 6.665 87.313 6.375 86.963 5.985C86.623 5.585 86.453 5.05 86.453 4.38C86.453 3.82 86.598 3.315 86.888 2.865C87.188 2.415 87.638 2.055 88.238 1.785C88.838 1.515 89.583 1.38 90.473 1.38C91.093 1.38 91.703 1.46 92.303 1.62C92.903 1.78 93.418 2.01 93.848 2.31L93.353 3.51C92.913 3.23 92.443 3.02 91.943 2.88C91.443 2.73 90.953 2.655 90.473 2.655C89.623 2.655 88.983 2.81 88.553 3.12C88.133 3.43 87.923 3.83 87.923 4.32C87.923 4.68 88.043 4.975 88.283 5.205C88.523 5.425 88.818 5.6 89.168 5.73C89.528 5.85 90.013 5.98 90.623 6.12C91.413 6.31 92.048 6.5 92.528 6.69C93.008 6.88 93.418 7.17 93.758 7.56C94.108 7.95 94.283 8.475 94.283 9.135C94.283 9.685 94.133 10.19 93.833 10.65C93.533 11.1 93.078 11.46 92.468 11.73C91.858 11.99 91.108 12.12 90.218 12.12ZM100.479 3.975C101.249 3.975 101.939 4.145 102.549 4.485C103.159 4.825 103.634 5.3 103.974 5.91C104.324 6.52 104.499 7.225 104.499 8.025C104.499 8.825 104.324 9.535 103.974 10.155C103.634 10.765 103.159 11.24 102.549 11.58C101.939 11.92 101.249 12.09 100.479 12.09C99.9094 12.09 99.3844 11.98 98.9044 11.76C98.4344 11.54 98.0344 11.22 97.7044 10.8V14.91H96.2644V4.05H97.6444V5.31C97.9644 4.87 98.3694 4.54 98.8594 4.32C99.3494 4.09 99.8894 3.975 100.479 3.975ZM100.359 10.83C100.869 10.83 101.324 10.715 101.724 10.485C102.134 10.245 102.454 9.915 102.684 9.495C102.924 9.065 103.044 8.575 103.044 8.025C103.044 7.475 102.924 6.99 102.684 6.57C102.454 6.14 102.134 5.81 101.724 5.58C101.324 5.35 100.869 5.235 100.359 5.235C99.8594 5.235 99.4044 5.355 98.9944 5.595C98.5944 5.825 98.2744 6.15 98.0344 6.57C97.8044 6.99 97.6894 7.475 97.6894 8.025C97.6894 8.575 97.8044 9.065 98.0344 9.495C98.2644 9.915 98.5844 10.245 98.9944 10.485C99.4044 10.715 99.8594 10.83 100.359 10.83ZM109.311 3.975C110.411 3.975 111.251 4.245 111.831 4.785C112.421 5.325 112.716 6.13 112.716 7.2V12H111.351V10.95C111.111 11.32 110.766 11.605 110.316 11.805C109.876 11.995 109.351 12.09 108.741 12.09C107.851 12.09 107.136 11.875 106.596 11.445C106.066 11.015 105.801 10.45 105.801 9.75C105.801 9.05 106.056 8.49 106.566 8.07C107.076 7.64 107.886 7.425 108.996 7.425H111.276V7.14C111.276 6.52 111.096 6.045 110.736 5.715C110.376 5.385 109.846 5.22 109.146 5.22C108.676 5.22 108.216 5.3 107.766 5.46C107.316 5.61 106.936 5.815 106.626 6.075L106.026 4.995C106.436 4.665 106.926 4.415 107.496 4.245C108.066 4.065 108.671 3.975 109.311 3.975ZM108.981 10.98C109.531 10.98 110.006 10.86 110.406 10.62C110.806 10.37 111.096 10.02 111.276 9.57V8.46H109.056C107.836 8.46 107.226 8.87 107.226 9.69C107.226 10.09 107.381 10.405 107.691 10.635C108.001 10.865 108.431 10.98 108.981 10.98ZM118.89 12.09C118.08 12.09 117.355 11.915 116.715 11.565C116.085 11.215 115.59 10.735 115.23 10.125C114.87 9.505 114.69 8.805 114.69 8.025C114.69 7.245 114.87 6.55 115.23 5.94C115.59 5.32 116.085 4.84 116.715 4.5C117.355 4.15 118.08 3.975 118.89 3.975C119.61 3.975 120.25 4.12 120.81 4.41C121.38 4.7 121.82 5.12 122.13 5.67L121.035 6.375C120.785 5.995 120.475 5.71 120.105 5.52C119.735 5.33 119.325 5.235 118.875 5.235C118.355 5.235 117.885 5.35 117.465 5.58C117.055 5.81 116.73 6.14 116.49 6.57C116.26 6.99 116.145 7.475 116.145 8.025C116.145 8.585 116.26 9.08 116.49 9.51C116.73 9.93 117.055 10.255 117.465 10.485C117.885 10.715 118.355 10.83 118.875 10.83C119.325 10.83 119.735 10.735 120.105 10.545C120.475 10.355 120.785 10.07 121.035 9.69L122.13 10.38C121.82 10.93 121.38 11.355 120.81 11.655C120.25 11.945 119.61 12.09 118.89 12.09ZM131.062 8.07C131.062 8.18 131.052 8.325 131.032 8.505H124.582C124.672 9.205 124.977 9.77 125.497 10.2C126.027 10.62 126.682 10.83 127.462 10.83C128.412 10.83 129.177 10.51 129.757 9.87L130.552 10.8C130.192 11.22 129.742 11.54 129.202 11.76C128.672 11.98 128.077 12.09 127.417 12.09C126.577 12.09 125.832 11.92 125.182 11.58C124.532 11.23 124.027 10.745 123.667 10.125C123.317 9.505 123.142 8.805 123.142 8.025C123.142 7.255 123.312 6.56 123.652 5.94C124.002 5.32 124.477 4.84 125.077 4.5C125.687 4.15 126.372 3.975 127.132 3.975C127.892 3.975 128.567 4.15 129.157 4.5C129.757 4.84 130.222 5.32 130.552 5.94C130.892 6.56 131.062 7.27 131.062 8.07ZM127.132 5.19C126.442 5.19 125.862 5.4 125.392 5.82C124.932 6.24 124.662 6.79 124.582 7.47H129.682C129.602 6.8 129.327 6.255 128.857 5.835C128.397 5.405 127.822 5.19 127.132 5.19Z" fill="white"/>
</svg>
