<svg width="152" height="44" viewBox="0 0 152 44" fill="none" xmlns="http://www.w3.org/2000/svg">
<g clip-path="url(#clip0_2271_60)">
<path d="M100.333 32.483H97.5028L94.7542 37.0287L92.0546 32.483H89.1452L93.494 39.3405V43.8049H95.9839V39.2914L100.333 32.4813V32.483ZM85.2531 34.7795V32.483H75.8755V34.7795H79.3194V43.8049H81.8092V34.7795H85.2531ZM70.7064 43.8049V32.483H68.2165V43.8049H70.7064ZM62.9661 41.9772L61.3812 40.3762C60.9397 40.7857 60.4949 41.109 60.0466 41.3476C59.6001 41.5846 59.052 41.703 58.4059 41.703C57.9204 41.703 57.4756 41.6082 57.0713 41.4204C56.667 41.2308 56.322 40.9753 56.0361 40.6521C55.7503 40.3288 55.527 39.9514 55.3646 39.5199C55.2022 39.0883 55.1227 38.6297 55.1227 38.1456V38.1135C55.1227 37.6278 55.2039 37.1725 55.3646 36.7461C55.527 36.3196 55.752 35.9456 56.0429 35.6223C56.3338 35.2991 56.6806 35.0452 57.0865 34.8624C57.4908 34.6797 57.9306 34.5866 58.4042 34.5866C58.9759 34.5866 59.4901 34.7 59.9485 34.9268C60.4069 35.1535 60.8568 35.4666 61.2983 35.8643L62.8832 34.0366C62.6244 33.7776 62.3437 33.5407 62.0426 33.3241C61.7415 33.1091 61.4117 32.9247 61.0564 32.7741C60.7012 32.6234 60.3054 32.505 59.8673 32.4187C59.4309 32.3323 58.9489 32.29 58.4194 32.29C57.5466 32.29 56.7482 32.444 56.0277 32.7504C55.3054 33.0567 54.6863 33.4781 54.1687 34.0112C53.6511 34.5443 53.2469 35.1654 52.9559 35.8711C52.665 36.5768 52.5195 37.335 52.5195 38.144V38.1761C52.5195 38.9851 52.665 39.7449 52.9559 40.4574C53.2469 41.1682 53.6511 41.7859 54.1687 42.3089C54.6863 42.8318 55.3003 43.2448 56.0108 43.546C56.7229 43.8473 57.4925 43.9996 58.323 43.9996C58.8727 43.9996 59.3683 43.9539 59.8098 43.8625C60.2513 43.7711 60.6589 43.6357 61.0311 43.458C61.4032 43.2803 61.7449 43.0671 62.0578 42.82C62.3707 42.5729 62.6718 42.292 62.9627 41.9789L62.9661 41.9772Z" fill="white"/>
<path fill-rule="evenodd" clip-rule="evenodd" d="M127.117 0H146.794C149.62 0.169237 151.814 2.03254 151.988 4.94342L152.002 5.21082V14.5849L151.988 14.8506C151.821 17.6193 149.674 19.6281 147.057 19.7838H126.851L126.585 19.7652C123.867 19.42 122.007 17.3113 121.924 14.5849V4.94342C122.083 2.31347 124.104 0.177699 126.851 0.0169237L127.117 0.00169237V0ZM130.65 4.92988H143.263C144.451 4.94004 145.444 5.903 145.444 7.0995V12.791C145.27 14.0196 144.603 14.6779 143.385 14.8506H130.697C129.503 14.8506 128.514 13.8504 128.514 12.6691L128.48 7.0995V6.9895C128.647 5.82853 129.4 4.92988 130.65 4.92988ZM119.737 6.51225C119.737 5.40036 119.821 4.55756 119.365 3.48798C118.619 1.77699 117.22 0.837725 115.483 0.600792L115.236 0.585561H97.1638C97.0742 0.59233 96.9845 0.595715 96.8966 0.600792C93.9923 0.951113 92.4277 3.02427 92.1401 5.61191V14.4224L92.3127 15.8152C92.9757 18.0356 94.5539 19.5401 96.8627 19.9311L97.7034 19.9954H115.307C115.87 19.9243 116.213 19.8786 116.76 19.6992C118.074 19.2609 118.91 18.4181 119.535 17.1725C119.818 16.5903 119.985 15.91 120.016 15.2669L120.031 15.0181V13.2547L120.002 13.2699L119.28 13.6778C117.693 14.4072 116.35 14.8184 114.588 14.9877L113.778 15.0198H101.195C101.11 15.0198 101.047 15.0164 100.963 15.0063L100.833 14.9893C99.8973 14.8556 99.1733 14.155 98.9179 13.2564C98.8773 13.143 98.8384 12.8688 98.8384 12.6657V7.86107L98.8875 7.39228C99.2105 6.25332 99.7383 5.85053 100.833 5.53575L101.193 5.50529H115.476L116.039 5.52221L116.582 5.5696L117.115 5.66268L117.658 5.7693L118.191 5.90977L118.707 6.06546L119.221 6.26855L119.718 6.49871L119.735 6.51394L119.737 6.51225ZM89.8752 5.81668V4.53725C89.8752 4.02954 89.701 3.54383 89.4997 3.08858L89.3898 2.90411L89.1276 2.54533C88.3884 1.65853 87.4175 1.11527 86.335 0.748029L86.0677 0.668487L85.7886 0.590638C85.3032 0.462018 84.794 0.397708 84.2764 0.358783L83.6354 0.341859H69.1681C68.911 0.341859 68.6184 0.368937 68.3714 0.438325C66.455 0.856341 64.4539 2.46748 64.1647 4.49494L64.1478 4.72849V8.22155L64.1816 8.69033C64.4539 10.5621 66.0101 11.5708 67.7354 11.9685C67.9502 12.0074 68.1634 12.0328 68.3714 12.0429L81.8914 12.4965C82.0487 12.5083 82.1891 12.5219 82.3431 12.5422C82.5088 12.5676 82.6069 12.5896 82.7659 12.6386C83.0619 12.7266 83.2243 12.8113 83.4831 12.9653C84.3289 13.4747 84.3661 14.6661 83.6996 15.3346C83.3546 15.6781 83.0755 15.7492 82.7964 15.7729H68.4035C66.9776 15.6358 66.3129 15.4818 64.9918 14.9149L63.8856 14.2599L63.8687 14.243V15.3667C64.0023 16.7951 64.415 17.7158 65.4587 18.7346L65.8342 19.051C66.7391 19.6484 67.6644 20.0174 68.7621 20.0174H86.5532C86.9304 19.9886 87.272 19.9311 87.6273 19.8312C89.3762 19.1272 90.3607 18.0593 90.6381 16.1334L90.655 15.9151V12.4796C90.4706 9.94438 88.7842 8.57694 86.5684 8.25539L86.3367 8.24016L71.866 7.78491C71.2655 7.73753 70.6228 7.27213 70.6228 6.61548V6.07393C70.6228 5.98592 70.6363 5.90638 70.6498 5.82007C70.6718 5.75914 70.6786 5.71007 70.7107 5.64914C70.8985 5.09066 71.4533 4.91127 71.7916 4.88757H86.5058L86.9422 4.90111C87.0894 4.91634 87.2348 4.93157 87.3803 4.94511C88.1533 5.08558 88.7639 5.27513 89.471 5.60345L89.8786 5.82007L89.8752 5.81668ZM32.7691 0.546636V14.4326C32.7742 14.5324 32.7809 14.6306 32.7843 14.7304C32.9416 17.6058 35.2116 19.8752 38.0871 20.036L38.3645 20.0512H55.7191C55.9052 20.0411 56.0913 20.0292 56.279 20.0208C59.1917 19.5334 61.142 17.5956 61.301 14.7304L61.3179 14.4326V0.546636H54.6281V12.3882C54.6281 12.5388 54.6129 12.6793 54.5977 12.8265C54.3439 14.0975 53.6606 14.81 52.4444 15.2144C52.3971 15.2246 52.3497 15.2347 52.3023 15.2466L52.008 15.2923L51.712 15.3075H42.1534C40.6988 15.1434 39.5756 14.1821 39.4115 12.6843L39.3946 12.3865V0.516174L32.7691 0.546636ZM6.87418 19.7923H0V2.02915C0 1.88869 0.0253722 1.72791 0.0625849 1.59252C0.165765 1.07635 0.686742 0.693873 1.16712 0.575407C1.2703 0.555098 1.36164 0.544944 1.46313 0.544944H9.77508C11.113 0.63464 12.0704 1.03573 12.9398 2.07316L22.199 13.759C22.9805 14.5409 24.1476 14.1195 24.1476 13.0702V0.59233H30.494V17.5482C30.4805 17.7056 30.4636 17.8613 30.4467 18.0187C30.171 19.1306 29.5502 19.5824 28.5167 19.8583C28.4287 19.8685 28.3679 19.8718 28.2816 19.8718H19.0495L8.13603 6.47163C7.80619 5.8133 6.87249 6.43948 6.87249 6.90996V19.7923H6.87418Z" fill="#CCA857"/>
<path d="M0 39.3896H37.5086V36.8984H0V39.3896ZM114.478 39.3896H151.986V36.8984H114.478V39.3896Z" fill="#CCA857"/>
</g>
<defs>
<clipPath id="clip0_2271_60">
<rect width="152" height="44" fill="white"/>
</clipPath>
</defs>
</svg>
