<svg width="166" height="48" viewBox="0 0 166 48" fill="none" xmlns="http://www.w3.org/2000/svg">
<g clip-path="url(#clip0_2297_1770)">
<path d="M109.574 35.4351H106.484L103.482 40.394L100.534 35.4351H97.3565L102.106 42.916V47.7863H104.825V42.8624L109.574 35.4332V35.4351ZM93.1059 37.9404V35.4351H82.8646V37.9404H86.6257V47.7863H89.3449V37.9404H93.1059ZM77.2193 47.7863V35.4351H74.5001V47.7863H77.2193ZM68.7662 45.7924L67.0353 44.0459C66.5532 44.4927 66.0673 44.8453 65.5778 45.1056C65.0901 45.3641 64.4916 45.4933 63.7859 45.4933C63.2558 45.4933 62.7699 45.3899 62.3284 45.185C61.8869 44.9782 61.5101 44.6994 61.1979 44.3468C60.8857 43.9942 60.6419 43.5825 60.4645 43.1117C60.2872 42.6409 60.2004 42.1406 60.2004 41.6125V41.5775C60.2004 41.0476 60.2891 40.551 60.4645 40.0857C60.6419 39.6205 60.8876 39.2125 61.2053 38.8598C61.523 38.5072 61.9017 38.2303 62.3451 38.0309C62.7866 37.8315 63.2669 37.7299 63.7841 37.7299C64.4085 37.7299 64.9701 37.8536 65.4707 38.101C65.9713 38.3484 66.4626 38.69 66.9448 39.1238L68.6757 37.1299C68.3931 36.8474 68.0864 36.589 67.7576 36.3527C67.4288 36.1182 67.0686 35.9169 66.6806 35.7526C66.2927 35.5883 65.8604 35.4591 65.382 35.3649C64.9054 35.2708 64.3789 35.2246 63.8007 35.2246C62.8475 35.2246 61.9756 35.3926 61.1887 35.7268C60.3999 36.0609 59.7238 36.5207 59.1585 37.1022C58.5933 37.6838 58.1517 38.3613 57.834 39.1312C57.5163 39.9011 57.3574 40.7282 57.3574 41.6107V41.6458C57.3574 42.5283 57.5163 43.3572 57.834 44.1345C58.1517 44.9099 58.5933 45.5838 59.1585 46.1543C59.7238 46.7247 60.3943 47.1752 61.1702 47.5039C61.9479 47.8325 62.7884 47.9986 63.6954 47.9986C64.2958 47.9986 64.837 47.9488 65.3192 47.8491C65.8013 47.7494 66.2465 47.6017 66.6529 47.4078C67.0593 47.214 67.4325 46.9814 67.7742 46.7118C68.116 46.4423 68.4448 46.1358 68.7625 45.7942L68.7662 45.7924Z" fill="white"/>
<path fill-rule="evenodd" clip-rule="evenodd" d="M138.825 0H160.314C163.401 0.184622 165.797 2.21732 165.987 5.39282L166.002 5.68453V15.9108L165.987 16.2006C165.804 19.221 163.46 21.4125 160.602 21.5824H138.535L138.245 21.5621C135.276 21.1854 133.244 18.885 133.154 15.9108V5.39282C133.327 2.52379 135.535 0.193854 138.535 0.0184622L138.825 0.00184622V0ZM142.684 5.37805H156.459C157.756 5.38913 158.84 6.43963 158.84 7.74491V13.9538C158.65 15.2941 157.922 16.0123 156.592 16.2006H142.735C141.431 16.2006 140.351 15.1095 140.351 13.8208L140.314 7.74491V7.62491C140.497 6.3584 141.319 5.37805 142.684 5.37805ZM130.765 7.10427C130.765 5.8913 130.857 4.97188 130.359 3.80507C129.544 1.93854 128.016 0.913881 126.119 0.65541L125.849 0.638794H106.113C106.015 0.646179 105.917 0.649871 105.821 0.65541C102.649 1.03758 100.941 3.2992 100.627 6.12208V15.7335L100.815 17.253C101.539 19.6752 103.263 21.3165 105.784 21.743L106.702 21.8131H125.927C126.542 21.7356 126.917 21.6858 127.514 21.4901C128.949 21.0119 129.862 20.0925 130.545 18.7336C130.854 18.0985 131.037 17.3564 131.07 16.6548L131.086 16.3834V14.4596L131.055 14.4762L130.266 14.9212C128.534 15.7169 127.067 16.1655 125.142 16.3502L124.257 16.3852H110.515C110.423 16.3852 110.354 16.3816 110.262 16.3705L110.12 16.352C109.098 16.2062 108.308 15.4418 108.029 14.4615C107.984 14.3378 107.942 14.0387 107.942 13.8171V8.57571L107.996 8.06431C108.348 6.8218 108.925 6.3824 110.12 6.039L110.513 6.00577H126.112L126.727 6.02423L127.32 6.07593L127.902 6.17747L128.495 6.29378L129.077 6.44702L129.64 6.61687L130.202 6.83842L130.745 7.0895L130.763 7.10612L130.765 7.10427ZM98.1532 6.34547V4.94973C98.1532 4.39586 97.9629 3.86599 97.7431 3.36936L97.623 3.16812L97.3367 2.77672C96.5295 1.8093 95.4691 1.21666 94.2869 0.816031L93.995 0.729259L93.6902 0.644332C93.16 0.504019 92.604 0.433863 92.0387 0.3914L91.3386 0.372937H75.5389C75.2581 0.372937 74.9385 0.402477 74.6688 0.478172C72.5758 0.93419 70.3905 2.6918 70.0746 4.90357L70.0561 5.15835V8.96896L70.0931 9.48036C70.3905 11.5223 72.09 12.6226 73.9742 13.0565C74.2088 13.099 74.4416 13.1267 74.6688 13.1377L89.4341 13.6325C89.6059 13.6454 89.7592 13.6602 89.9273 13.6824C90.1083 13.7101 90.2155 13.7341 90.3891 13.7876C90.7124 13.8836 90.8897 13.9759 91.1724 14.1439C92.096 14.6996 92.1366 15.9994 91.4088 16.7286C91.032 17.1034 90.7272 17.181 90.4224 17.2068H74.7039C73.1466 17.0573 72.4206 16.8893 70.9779 16.2708L69.7698 15.5563L69.7513 15.5378V16.7637C69.8973 18.3219 70.348 19.3263 71.4878 20.4377L71.8979 20.783C72.8862 21.4347 73.8966 21.8371 75.0955 21.8371H94.5252C94.9371 21.8058 95.3103 21.743 95.6982 21.6341C97.6083 20.866 98.6834 19.7011 98.9863 17.6001L99.0048 17.3619V13.6141C98.8035 10.8484 96.9617 9.35667 94.5418 9.00588L94.2887 8.98927L78.4853 8.49263C77.8295 8.44094 77.1275 7.93323 77.1275 7.21689V6.6261C77.1275 6.5301 77.1423 6.44332 77.1571 6.34917C77.1811 6.2827 77.1885 6.22916 77.2236 6.1627C77.4286 5.55344 78.0345 5.35774 78.404 5.3319H94.4734L94.95 5.34667C95.1107 5.36328 95.2696 5.3799 95.4285 5.39467C96.2727 5.54791 96.9396 5.75468 97.7117 6.11285L98.1569 6.34917L98.1532 6.34547ZM35.7873 0.596331V15.7446C35.7928 15.8535 35.8002 15.9606 35.8039 16.0695C35.9757 19.2063 38.4548 21.6821 41.5951 21.8575L41.8981 21.8741H60.8512C61.0544 21.863 61.2576 21.8501 61.4626 21.8408C64.6436 21.3091 66.7735 19.1952 66.9472 16.0695L66.9656 15.7446V0.596331H59.6597V13.5144C59.6597 13.6787 59.643 13.8319 59.6264 13.9925C59.3493 15.3791 58.603 16.1563 57.2748 16.5976C57.2231 16.6086 57.1714 16.6197 57.1197 16.6326L56.7982 16.6825L56.475 16.6991H46.036C44.4473 16.52 43.2207 15.4714 43.0416 13.8375L43.0231 13.5125V0.563099L35.7873 0.596331ZM7.50733 21.5916H0V2.21362C0 2.06039 0.0277092 1.885 0.0683492 1.7373C0.181033 1.1742 0.749995 0.756952 1.27462 0.627716C1.38731 0.605562 1.48706 0.594484 1.59789 0.594484H10.6754C12.1366 0.692334 13.1822 1.12989 14.1317 2.26163L24.2437 15.0098C25.0971 15.8628 26.3717 15.4031 26.3717 14.2584V0.646179H33.3027V19.1435C33.2879 19.3152 33.2695 19.4851 33.251 19.6568C32.9499 20.8697 32.2719 21.3627 31.1432 21.6636C31.0472 21.6747 30.9807 21.6784 30.8865 21.6784H20.804L8.8854 7.05996C8.52518 6.34178 7.50549 7.02489 7.50549 7.53814V21.5916H7.50733Z" fill="#CCA857"/>
<path d="M0 42.9706H40.9634V40.2529H0V42.9706ZM125.022 42.9706H165.985V40.2529H125.022V42.9706Z" fill="#CCA857"/>
</g>
<defs>
<clipPath id="clip0_2297_1770">
<rect width="166" height="48" fill="white"/>
</clipPath>
</defs>
</svg>
