<svg width="26" height="26" viewBox="0 0 26 26" fill="none" xmlns="http://www.w3.org/2000/svg">
<path d="M14.9026 11.4686L22.348 3H20.5837L14.1189 10.3532L8.95545 3H3L10.8081 14.1193L3 23H4.76449L11.5916 15.2348L17.0445 23H23L14.9024 11.4686H14.9029H14.9026ZM12.4859 14.2172L11.6948 13.11L5.40015 4.29961H8.11012L13.1901 11.4099L13.9812 12.517L20.5845 21.7593H17.8745L12.4861 14.2175V14.217L12.4859 14.2172Z" fill="white"/>
</svg>
