<svg width="26" height="26" viewBox="0 0 26 26" fill="none" xmlns="http://www.w3.org/2000/svg">
<path d="M23.5469 7.50353C23.2932 6.52471 22.5502 5.75294 21.6078 5.48941C19.8862 5 13 5 13 5C13 5 6.11366 5 4.39208 5.47059C3.46787 5.73412 2.70675 6.52471 2.45305 7.50353C2 9.29176 2 13 2 13C2 13 2 16.7271 2.45305 18.4965C2.70675 19.4753 3.44975 20.2471 4.39208 20.5106C6.13178 21 13 21 13 21C13 21 19.8862 21 21.6078 20.5294C22.5502 20.2659 23.2932 19.4941 23.5469 18.5153C23.9999 16.7271 23.9999 13.0188 23.9999 13.0188C23.9999 13.0188 24.018 9.29176 23.5469 7.50353ZM10.8072 16.4259V9.57412L16.5337 13L10.8072 16.4259Z" fill="white"/>
</svg>
