<svg width="26" height="26" viewBox="0 0 26 26" fill="none" xmlns="http://www.w3.org/2000/svg">
<g clip-path="url(#clip0_2297_1755)">
<path d="M17.5557 2.07693C18.7261 2.13215 19.5254 2.31893 20.2241 2.59349C20.9472 2.87531 21.5602 3.25349 22.17 3.86553C22.7799 4.47757 23.1554 5.09093 23.4352 5.81517C23.7061 6.51543 23.8895 7.31535 23.9412 8.48641C23.9929 9.65747 24.0044 10.0339 23.9987 13.0211C23.9929 16.0082 23.9797 16.3827 23.923 17.5561C23.8671 18.7263 23.681 19.5254 23.4064 20.2243C23.1242 20.9474 22.7464 21.5601 22.1341 22.1702C21.5219 22.7803 20.909 23.1549 20.1829 23.4352C19.4833 23.7056 18.6832 23.8899 17.5123 23.9412C16.3415 23.9925 15.9646 24.0043 12.9783 23.9986C9.992 23.9929 9.61602 23.9797 8.44275 23.924C7.26948 23.8684 6.47461 23.6809 5.77544 23.4077C5.05229 23.1248 4.43915 22.7477 3.82952 22.1352C3.21989 21.5227 2.84457 20.9089 2.56495 20.1843C2.29391 19.4847 2.10976 18.6845 2.05894 17.5146C2.00768 16.3404 1.99558 15.9655 2.0013 12.9788C2.00702 9.99209 2.02044 9.61765 2.0761 8.44461C2.13176 7.27157 2.31811 6.47495 2.59245 5.77557C2.87515 5.05243 3.25245 4.44017 3.8645 3.82967C4.47655 3.21917 5.09079 2.84407 5.81526 2.56511C6.51531 2.29429 7.31502 2.10971 8.48587 2.05911C9.65672 2.00851 10.0336 1.99553 13.021 2.00125C16.0084 2.00697 16.3824 2.01973 17.5557 2.07693ZM17.4272 21.9623C18.4997 21.9157 19.0821 21.7375 19.4701 21.5883C19.9841 21.3903 20.3501 21.1509 20.7369 20.7679C21.1237 20.3849 21.3613 20.0175 21.5619 19.5047C21.7126 19.1166 21.8941 18.5349 21.9443 17.4624C21.9988 16.3032 22.0103 15.9552 22.0167 13.0184C22.023 10.0816 22.0118 9.73403 21.961 8.57441C21.9152 7.50279 21.7359 6.91979 21.587 6.53193C21.389 6.01735 21.1505 5.65193 20.7666 5.26539C20.3827 4.87885 20.0164 4.64081 19.5031 4.44017C19.1155 4.28881 18.5338 4.10885 17.4617 4.05781C16.3017 4.00281 15.9541 3.99181 13.0177 3.98543C10.0813 3.97905 9.73284 3.99005 8.57233 4.04109C7.5007 4.08773 6.91747 4.26527 6.53005 4.41509C6.0159 4.61309 5.65004 4.85091 5.26349 5.23547C4.87695 5.62003 4.63869 5.98501 4.43805 6.49937C4.28647 6.88591 4.1065 7.46737 4.0559 8.54009C4.00068 9.70015 3.98814 10.048 3.98286 12.9841C3.97758 15.9202 3.98792 16.2689 4.03874 17.4281C4.0856 18.5006 4.26336 19.0832 4.41275 19.4717C4.61075 19.9854 4.84945 20.3517 5.23358 20.738C5.6177 21.1243 5.98356 21.3624 6.49705 21.563C6.88425 21.7141 7.4666 21.8945 8.53779 21.9456C9.69786 22.0001 10.0455 22.0116 12.9829 22.018C15.9204 22.0243 16.2669 22.0125 17.427 21.9623M8.45969 7.12087C8.45837 7.84995 7.86656 8.43999 7.13747 8.43867C6.40839 8.43735 5.81834 7.84555 5.81966 7.11647C5.82098 6.38739 6.41279 5.79735 7.14187 5.79867C7.14187 5.79867 7.14209 5.79867 7.14231 5.79867C7.87118 5.80021 8.46101 6.39201 8.45969 7.12087ZM18.648 13.0109C18.6418 16.1305 16.1083 18.6537 12.9893 18.6478C9.87034 18.6418 7.34538 16.1085 7.35132 12.9889C7.35726 9.86933 9.89146 7.34549 13.0109 7.35165C16.1303 7.35781 18.6539 9.89177 18.648 13.0109ZM16.6666 13.007C16.6706 10.9819 15.0323 9.33693 13.0071 9.33297C10.982 9.32901 9.33706 10.9674 9.3331 12.9925C9.32914 15.0176 10.9675 16.6625 12.9926 16.6665C15.0175 16.6706 16.6625 15.0327 16.6666 13.0079V13.007Z" fill="white"/>
</g>
<defs>
<clipPath id="clip0_2297_1755">
<rect width="22" height="22" fill="white" transform="matrix(-1 0 0 1 24 2)"/>
</clipPath>
</defs>
</svg>
