<svg width="22" height="22" viewBox="0 0 22 22" fill="none" xmlns="http://www.w3.org/2000/svg">
<path d="M13.9501 8.7981L13.9979 8.84586L14.0458 8.87897C14.0501 8.88227 14.0599 8.89002 14.0738 8.90215C14.1028 8.92753 14.1479 8.97025 14.1979 9.0295C14.2988 9.14917 14.4089 9.32297 14.4619 9.54948C14.555 9.94699 14.5326 10.7994 13.1755 12.1539C11.8186 13.5082 10.9635 13.5317 10.5631 13.4383C10.3354 13.3852 10.161 13.2751 10.041 13.1743C9.98164 13.1244 9.93884 13.0794 9.91344 13.0504C9.90131 13.0366 9.89356 13.0268 9.89026 13.0226L9.85052 12.9653L9.79285 12.9111L7.91881 11.1507C7.29323 10.5364 6.27298 10.5395 5.65135 11.1599L5.65133 11.1599L5.64641 11.1649L2.71627 14.1446C2.09519 14.7676 2.09458 15.7897 2.71443 16.4135L4.46901 18.2194L4.47221 18.223C4.48433 18.2365 4.50027 18.2538 4.52003 18.2745C4.55955 18.3158 4.6145 18.3707 4.68494 18.4349C4.82561 18.5632 5.02938 18.7302 5.29652 18.902C5.83187 19.2464 6.62418 19.6114 7.66736 19.7187C9.78011 19.9361 12.7005 19.0812 16.3908 15.4263C20.0827 11.7698 20.9428 8.85199 20.7166 6.73133C20.6051 5.68553 20.2332 4.88945 19.8842 4.35171C19.7099 4.08326 19.5409 3.87828 19.4112 3.73682C19.3463 3.66599 19.2909 3.61073 19.2493 3.57105C19.2288 3.55146 19.2115 3.53562 19.1981 3.52356L17.3887 1.71764C16.7639 1.09412 15.7366 1.09412 15.1119 1.71764L12.1243 4.69942C11.4988 5.32374 11.4988 6.35158 12.1243 6.9759L13.9501 8.7981Z" stroke="#CCA857" stroke-width="1.5"/>
</svg>
